<svg width="216" height="215" viewBox="0 0 216 215" fill="none" xmlns="http://www.w3.org/2000/svg">
<path d="M2 213.466V1.82202H107.822V107.644H213.644V213.466H2Z" stroke="#00F27F" stroke-width="3" stroke-miterlimit="10"/>
</svg>
