<svg width="56" height="56" viewBox="0 0 56 56" fill="none" xmlns="http://www.w3.org/2000/svg">
<path d="M2.13672 1.27131H54.735V54.2491H2.13672V1.27131Z" stroke="white" stroke-width="3" stroke-miterlimit="10"/>
</svg>
